<?xml version="1.0" encoding="UTF-8" standalone="no"?>
<!-- Created with Inkscape (http://www.inkscape.org/) -->

<svg
   xmlns:dc="http://purl.org/dc/elements/1.1/"
   xmlns:cc="http://creativecommons.org/ns#"
   xmlns:rdf="http://www.w3.org/1999/02/22-rdf-syntax-ns#"
   xmlns:svg="http://www.w3.org/2000/svg"
   xmlns="http://www.w3.org/2000/svg"
   xmlns:sodipodi="http://sodipodi.sourceforge.net/DTD/sodipodi-0.dtd"
   xmlns:inkscape="http://www.inkscape.org/namespaces/inkscape"
   width="210mm"
   height="297mm"
   viewBox="0 0 210 297"
   version="1.1"
   id="svg8"
   inkscape:version="0.92.1 r15371"
   sodipodi:docname="extensionicon.svg">
  <defs
     id="defs2">
    <inkscape:perspective
       sodipodi:type="inkscape:persp3d"
       inkscape:vp_x="-101.21981 : 292.82192 : 1"
       inkscape:vp_y="0 : 1000 : 0"
       inkscape:vp_z="2689.4553 : 67.749206 : 1"
       inkscape:persp3d-origin="278.80053 : -40.251064 : 1"
       id="perspective4575" />
  </defs>
  <sodipodi:namedview
     id="base"
     pagecolor="#ffffff"
     bordercolor="#666666"
     borderopacity="1.0"
     inkscape:pageopacity="0.0"
     inkscape:pageshadow="2"
     inkscape:zoom="0.7"
     inkscape:cx="99.156356"
     inkscape:cy="385.76596"
     inkscape:document-units="mm"
     inkscape:current-layer="svg8"
     showgrid="false"
     showguides="true"
     inkscape:guide-bbox="true"
     inkscape:window-width="1920"
     inkscape:window-height="1138"
     inkscape:window-x="-8"
     inkscape:window-y="-8"
     inkscape:window-maximized="1">
    <sodipodi:guide
       position="55.859332,207.00026"
       orientation="0,1"
       id="guide4490"
       inkscape:locked="false" />
    <sodipodi:guide
       position="34.611403,173.59156"
       orientation="1,0"
       id="guide4626"
       inkscape:locked="false" />
    <sodipodi:guide
       position="40.892237,163.30169"
       orientation="0,1"
       id="guide4628"
       inkscape:locked="false" />
    <sodipodi:guide
       position="32.86776,164.74296"
       orientation="0,1"
       id="guide4792"
       inkscape:locked="false" />
    <sodipodi:guide
       position="31.442894,164.74296"
       orientation="1,0"
       id="guide4794"
       inkscape:locked="false" />
    <sodipodi:guide
       position="116.29565,164.74296"
       orientation="1,0"
       id="guide4796"
       inkscape:locked="false" />
    <sodipodi:guide
       position="114.78472,164.74296"
       orientation="1,0"
       id="guide4798"
       inkscape:locked="false" />
    <sodipodi:guide
       position="31.442893,108.90439"
       orientation="0,1"
       id="guide4801"
       inkscape:locked="false" />
  </sodipodi:namedview>
  <metadata
     id="metadata5">
    <rdf:RDF>
      <cc:Work
         rdf:about="">
        <dc:format>image/svg+xml</dc:format>
        <dc:type
           rdf:resource="http://purl.org/dc/dcmitype/StillImage" />
        <dc:title></dc:title>
      </cc:Work>
    </rdf:RDF>
  </metadata>
  <circle
     style="opacity:1;vector-effect:none;fill:#a02c5a;fill-opacity:1;stroke:none;stroke-width:0.26699999;stroke-linecap:butt;stroke-linejoin:bevel;stroke-miterlimit:4;stroke-dasharray:none;stroke-dashoffset:0;stroke-opacity:1;paint-order:markers fill stroke"
     id="path4836"
     cx="85.422623"
     cy="157.3378"
     r="90.336304"
     inkscape:export-xdpi="35.990002"
     inkscape:export-ydpi="35.990002" />
  <g
     inkscape:label="Box"
     inkscape:groupmode="layer"
     id="layer1">
    <rect
       style="display:none;opacity:1;vector-effect:none;fill:#999999;fill-opacity:1;stroke:#000000;stroke-width:0.33416718;stroke-linecap:butt;stroke-linejoin:miter;stroke-miterlimit:4;stroke-dasharray:none;stroke-dashoffset:0;stroke-opacity:1;paint-order:normal"
       id="rect4622-0-2"
       width="119.92405"
       height="55.846909"
       x="82.419128"
       y="17.472351"
       transform="matrix(0.70710678,0.70710678,0,1,0,0)" />
    <path
       style="display:inline;opacity:1;vector-effect:none;fill:#999999;fill-opacity:1;stroke:#000000;stroke-width:0.28099999;stroke-linecap:butt;stroke-linejoin:miter;stroke-miterlimit:4;stroke-dasharray:none;stroke-dashoffset:0;stroke-opacity:1;paint-order:normal"
       d="m 116.29565,132.25704 28.27733,28.29353 v 55.84691 l -28.27733,-28.30183 z"
       id="rect4622-0-24"
       inkscape:connector-curvature="0"
       sodipodi:nodetypes="ccccc"
       inkscape:export-xdpi="35.990002"
       inkscape:export-ydpi="35.990002" />
    <rect
       style="display:inline;opacity:1;vector-effect:none;fill:#4d4d4d;fill-opacity:1;stroke:#000000;stroke-width:0.28099999;stroke-linecap:butt;stroke-linejoin:miter;stroke-miterlimit:4;stroke-dasharray:none;stroke-dashoffset:0;stroke-opacity:1;paint-order:normal"
       id="rect4622-3"
       width="84.79911"
       height="55.846909"
       x="31.553452"
       y="132.25719"
       inkscape:export-xdpi="35.990002"
       inkscape:export-ydpi="35.990002" />
    <g
       id="g4782"
       inkscape:label="Files"
       style="display:inline"
       inkscape:export-xdpi="35.990002"
       inkscape:export-ydpi="35.990002">
      <path
         inkscape:connector-curvature="0"
         id="rect4485"
         d="M 47.064957,88.514292 41.719546,99.338964 H 89.293904 L 85.552013,88.514292 Z M 37.26504,99.345164 v 88.068516 h 79.375 V 99.345164 Z"
         style="opacity:1;vector-effect:none;fill:#2cb1c1;fill-opacity:1;stroke:#295a61;stroke-width:0.28099999;stroke-linecap:butt;stroke-linejoin:miter;stroke-miterlimit:4;stroke-dasharray:none;stroke-dashoffset:0;stroke-opacity:1;paint-order:normal" />
      <path
         inkscape:connector-curvature="0"
         id="rect4485-3"
         d="M 50.023771,91.875486 44.67836,102.70016 H 92.252718 L 88.510827,91.875486 Z m -9.799917,10.830874 v 88.06852 h 79.374996 v -88.06852 z"
         style="opacity:1;vector-effect:none;fill:#2cb1c1;fill-opacity:1;stroke:#295a61;stroke-width:0.28099999;stroke-linecap:butt;stroke-linejoin:miter;stroke-miterlimit:4;stroke-dasharray:none;stroke-dashoffset:0;stroke-opacity:1;paint-order:normal" />
      <path
         inkscape:connector-curvature="0"
         id="rect4485-32"
         d="M 53.099606,95.540766 47.754195,106.36543 H 95.328553 L 91.586662,95.540766 Z m -9.799917,10.830864 v 88.06852 h 79.375001 v -88.06852 z"
         style="opacity:1;vector-effect:none;fill:#2cb1c1;fill-opacity:1;stroke:#295a61;stroke-width:0.28099999;stroke-linecap:butt;stroke-linejoin:miter;stroke-miterlimit:4;stroke-dasharray:none;stroke-dashoffset:0;stroke-opacity:1;paint-order:normal" />
      <path
         inkscape:connector-curvature="0"
         id="rect4485-8"
         d="m 56.375742,99.11231 -5.345411,10.82466 H 98.604689 L 94.862798,99.11231 Z m -9.799917,10.83086 v 88.06852 h 79.374995 v -88.06852 z"
         style="opacity:1;vector-effect:none;fill:#2cb1c1;fill-opacity:1;stroke:#295a61;stroke-width:0.28099999;stroke-linecap:butt;stroke-linejoin:miter;stroke-miterlimit:4;stroke-dasharray:none;stroke-dashoffset:0;stroke-opacity:1;paint-order:normal" />
      <path
         inkscape:connector-curvature="0"
         id="rect4485-8-6"
         d="m 59.447258,102.75705 -5.345411,10.82466 h 47.574363 l -3.741896,-10.82466 z m -9.799917,10.83086 v 88.06852 h 79.374999 v -88.06852 z"
         style="opacity:1;vector-effect:none;fill:#c1842c;fill-opacity:1;stroke:#614e29;stroke-width:0.28099999;stroke-linecap:butt;stroke-linejoin:miter;stroke-miterlimit:4;stroke-dasharray:none;stroke-dashoffset:0;stroke-opacity:1;paint-order:normal" />
      <path
         inkscape:connector-curvature="0"
         id="rect4485-8-6-6"
         d="m 62.878588,106.71731 -5.345411,10.82466 h 47.574373 l -3.7419,-10.82466 z m -9.799917,10.83086 v 88.06852 h 79.374999 v -88.06852 z"
         style="opacity:1;vector-effect:none;fill:#2cb1c1;fill-opacity:1;stroke:#295a61;stroke-width:0.28099999;stroke-linecap:butt;stroke-linejoin:miter;stroke-miterlimit:4;stroke-dasharray:none;stroke-dashoffset:0;stroke-opacity:1;paint-order:normal" />
      <path
         inkscape:connector-curvature="0"
         id="rect4485-8-6-0"
         d="m 66.233126,110.40257 -5.345411,10.82466 h 47.574365 l -3.74189,-10.82466 z m -9.799917,10.83086 v 88.06852 h 79.375001 v -88.06852 z"
         style="opacity:1;vector-effect:none;fill:#2cb1c1;fill-opacity:1;stroke:#295a61;stroke-width:0.28099999;stroke-linecap:butt;stroke-linejoin:miter;stroke-miterlimit:4;stroke-dasharray:none;stroke-dashoffset:0;stroke-opacity:1;paint-order:normal" />
    </g>
    <rect
       style="display:inline;opacity:1;vector-effect:none;fill:#999999;fill-opacity:1;stroke:#000000;stroke-width:0.28099999;stroke-linecap:butt;stroke-linejoin:miter;stroke-miterlimit:4;stroke-dasharray:none;stroke-dashoffset:0;stroke-opacity:1;paint-order:normal"
       id="rect4622"
       width="84.79911"
       height="55.846909"
       x="59.720234"
       y="160.55058"
       inkscape:export-xdpi="35.990002"
       inkscape:export-ydpi="35.990002" />
    <g
       id="g4789"
       inkscape:label="Deckleiste"
       inkscape:export-xdpi="35.990002"
       inkscape:export-ydpi="35.990002">
      <path
         transform="matrix(0.70710678,0.70710678,0,1,0,0)"
         style="display:inline;opacity:1;vector-effect:none;fill:#666666;fill-opacity:1;stroke:#000000;stroke-width:0.33416718;stroke-linecap:butt;stroke-linejoin:miter;stroke-miterlimit:4;stroke-dasharray:none;stroke-dashoffset:0;stroke-opacity:1;paint-order:normal"
         d="m 44.466967,100.81415 39.99019,0.0162 v 55.84691 l -39.99019,-0.0245 z"
         id="rect4622-0"
         inkscape:connector-curvature="0"
         sodipodi:nodetypes="ccccc" />
      <path
         style="display:inline;opacity:1;vector-effect:none;fill:#999999;fill-opacity:1;stroke:#000000;stroke-width:1.00913382;stroke-linecap:butt;stroke-linejoin:bevel;stroke-miterlimit:4;stroke-dasharray:none;stroke-dashoffset:0;stroke-opacity:1;paint-order:markers fill stroke"
         d="m 118.83984,499.86914 101.42774,101.49024 h 0.002 l 5.44531,5.44531 h 5.44532 309.60742 5.44726 l -5.44726,-5.44531 -27.61133,-27.6836 v 5.51758 l 22.16602,22.16602 H 225.71484 l -96.04296,-96.04297 h 11.33789 v -5.44727 h -16.78516 z"
         transform="scale(0.26458333)"
         id="rect4660-3-9"
         inkscape:connector-curvature="0" />
    </g>
  </g>
</svg>
